{
    "items": [
        {
            "external_urls": {
                "spotify": "https://open.spotify.com/artist/18oYqNtcLUHrqO7LfX7qni"
            },
            "followers": {
                "href": null,
                "total": 65241
            },
            "genres": [
                "orchestral soundtrack",
                "soundtrack"
            ],
            "href": "https://api.spotify.com/v1/artists/18oYqNtcLUHrqO7LfX7qni",
            "id": "18oYqNtcLUHrqO7LfX7qni",
            "images": [
                {
                    "height": 640,
                    "url": "https://i.scdn.co/image/ab6761610000e5ebac71b9e9c61e3b989058015a",
                    "width": 640
                },
                {
                    "height": 320,
                    "url": "https://i.scdn.co/image/ab67616100005174ac71b9e9c61e3b989058015a",
                    "width": 320
                },
                {
                    "height": 160,
                    "url": "https://i.scdn.co/image/ab6761610000f178ac71b9e9c61e3b989058015a",
                    "width": 160
                }
            ],
            "name": "Nicholas Britell",
            "popularity": 58,
            "type": "artist",
            "uri": "spotify:artist:18oYqNtcLUHrqO7LfX7qni"
        },
        {
            "external_urls": {
                "spotify": "https://open.spotify.com/artist/1Hsdzj7Dlq2I7tHP7501T4"
            },
            "followers": {
                "href": null,
                "total": 8856387
            },
            "genres": [
                "dance pop",
                "neo mellow",
                "pop",
                "post-teen pop",
                "uk pop"
            ],
            "href": "https://api.spotify.com/v1/artists/1Hsdzj7Dlq2I7tHP7501T4",
            "id": "1Hsdzj7Dlq2I7tHP7501T4",
            "images": [
                {
                    "height": 640,
                    "url": "https://i.scdn.co/image/ab6761610000e5eb80c7323d8b64397c278f86df",
                    "width": 640
                },
                {
                    "height": 320,
                    "url": "https://i.scdn.co/image/ab6761610000517480c7323d8b64397c278f86df",
                    "width": 320
                },
                {
                    "height": 160,
                    "url": "https://i.scdn.co/image/ab6761610000f17880c7323d8b64397c278f86df",
                    "width": 160
                }
            ],
            "name": "Niall Horan",
            "popularity": 76,
            "type": "artist",
            "uri": "spotify:artist:1Hsdzj7Dlq2I7tHP7501T4"
        },
        {
            "external_urls": {
                "spotify": "https://open.spotify.com/artist/2DvbYXMiUAQuupPEQnIt1I"
            },
            "followers": {
                "href": null,
                "total": 13295
            },
            "genres": [
                "brain waves"
            ],
            "href": "https://api.spotify.com/v1/artists/2DvbYXMiUAQuupPEQnIt1I",
            "id": "2DvbYXMiUAQuupPEQnIt1I",
            "images": [
                {
                    "height": 640,
                    "url": "https://i.scdn.co/image/ab67616d0000b273451ca2e9a0e6d2d43bb1fa28",
                    "width": 640
                },
                {
                    "height": 300,
                    "url": "https://i.scdn.co/image/ab67616d00001e02451ca2e9a0e6d2d43bb1fa28",
                    "width": 300
                },
                {
                    "height": 64,
                    "url": "https://i.scdn.co/image/ab67616d00004851451ca2e9a0e6d2d43bb1fa28",
                    "width": 64
                }
            ],
            "name": "Alpha Brain Waves",
            "popularity": 52,
            "type": "artist",
            "uri": "spotify:artist:2DvbYXMiUAQuupPEQnIt1I"
        },
        {
            "external_urls": {
                "spotify": "https://open.spotify.com/artist/5Pwc4xIPtQLFEnJriah9YJ"
            },
            "followers": {
                "href": null,
                "total": 14250924
            },
            "genres": [
                "piano rock",
                "pop",
                "pop rock"
            ],
            "href": "https://api.spotify.com/v1/artists/5Pwc4xIPtQLFEnJriah9YJ",
            "id": "5Pwc4xIPtQLFEnJriah9YJ",
            "images": [
                {
                    "height": 640,
                    "url": "https://i.scdn.co/image/ab6761610000e5eb77bf00f67e21f514dc44c485",
                    "width": 640
                },
                {
                    "height": 320,
                    "url": "https://i.scdn.co/image/ab6761610000517477bf00f67e21f514dc44c485",
                    "width": 320
                },
                {
                    "height": 160,
                    "url": "https://i.scdn.co/image/ab6761610000f17877bf00f67e21f514dc44c485",
                    "width": 160
                }
            ],
            "name": "OneRepublic",
            "popularity": 85,
            "type": "artist",
            "uri": "spotify:artist:5Pwc4xIPtQLFEnJriah9YJ"
        },
        {
            "external_urls": {
                "spotify": "https://open.spotify.com/artist/1hCkSJcXREhrodeIHQdav8"
            },
            "followers": {
                "href": null,
                "total": 532763
            },
            "genres": [
                "german soundtrack",
                "orchestral soundtrack",
                "scorecore",
                "soundtrack",
                "video game music"
            ],
            "href": "https://api.spotify.com/v1/artists/1hCkSJcXREhrodeIHQdav8",
            "id": "1hCkSJcXREhrodeIHQdav8",
            "images": [
                {
                    "height": 640,
                    "url": "https://i.scdn.co/image/ab6761610000e5eb91e7dd670bc7d3ec7d1cbc6f",
                    "width": 640
                },
                {
                    "height": 320,
                    "url": "https://i.scdn.co/image/ab6761610000517491e7dd670bc7d3ec7d1cbc6f",
                    "width": 320
                },
                {
                    "height": 160,
                    "url": "https://i.scdn.co/image/ab6761610000f17891e7dd670bc7d3ec7d1cbc6f",
                    "width": 160
                }
            ],
            "name": "Ramin Djawadi",
            "popularity": 69,
            "type": "artist",
            "uri": "spotify:artist:1hCkSJcXREhrodeIHQdav8"
        },
        {
            "external_urls": {
                "spotify": "https://open.spotify.com/artist/6eUKZXaKkcviH0Ku9w2n3V"
            },
            "followers": {
                "href": null,
                "total": 102896442
            },
            "genres": [
                "pop",
                "uk pop"
            ],
            "href": "https://api.spotify.com/v1/artists/6eUKZXaKkcviH0Ku9w2n3V",
            "id": "6eUKZXaKkcviH0Ku9w2n3V",
            "images": [
                {
                    "height": 640,
                    "url": "https://i.scdn.co/image/ab6761610000e5eb12a2ef08d00dd7451a6dbed6",
                    "width": 640
                },
                {
                    "height": 320,
                    "url": "https://i.scdn.co/image/ab6761610000517412a2ef08d00dd7451a6dbed6",
                    "width": 320
                },
                {
                    "height": 160,
                    "url": "https://i.scdn.co/image/ab6761610000f17812a2ef08d00dd7451a6dbed6",
                    "width": 160
                }
            ],
            "name": "Ed Sheeran",
            "popularity": 91,
            "type": "artist",
            "uri": "spotify:artist:6eUKZXaKkcviH0Ku9w2n3V"
        },
        {
            "external_urls": {
                "spotify": "https://open.spotify.com/artist/0du5cEVh5yTK9QJze8zA0C"
            },
            "followers": {
                "href": null,
                "total": 43387109
            },
            "genres": [
                "dance pop",
                "pop"
            ],
            "href": "https://api.spotify.com/v1/artists/0du5cEVh5yTK9QJze8zA0C",
            "id": "0du5cEVh5yTK9QJze8zA0C",
            "images": [
                {
                    "height": 640,
                    "url": "https://i.scdn.co/image/ab6761610000e5ebc36dd9eb55fb0db4911f25dd",
                    "width": 640
                },
                {
                    "height": 320,
                    "url": "https://i.scdn.co/image/ab67616100005174c36dd9eb55fb0db4911f25dd",
                    "width": 320
                },
                {
                    "height": 160,
                    "url": "https://i.scdn.co/image/ab6761610000f178c36dd9eb55fb0db4911f25dd",
                    "width": 160
                }
            ],
            "name": "Bruno Mars",
            "popularity": 87,
            "type": "artist",
            "uri": "spotify:artist:0du5cEVh5yTK9QJze8zA0C"
        },
        {
            "external_urls": {
                "spotify": "https://open.spotify.com/artist/4W3fa7tiXGVXl3KilbACqt"
            },
            "followers": {
                "href": null,
                "total": 245603
            },
            "genres": [
                "argentine ambient",
                "latin classical",
                "latin soundtrack",
                "orchestral soundtrack",
                "soundtrack"
            ],
            "href": "https://api.spotify.com/v1/artists/4W3fa7tiXGVXl3KilbACqt",
            "id": "4W3fa7tiXGVXl3KilbACqt",
            "images": [
                {
                    "height": 640,
                    "url": "https://i.scdn.co/image/ab6761610000e5eb949bbdd6ac3ae58e69e7f304",
                    "width": 640
                },
                {
                    "height": 320,
                    "url": "https://i.scdn.co/image/ab67616100005174949bbdd6ac3ae58e69e7f304",
                    "width": 320
                },
                {
                    "height": 160,
                    "url": "https://i.scdn.co/image/ab6761610000f178949bbdd6ac3ae58e69e7f304",
                    "width": 160
                }
            ],
            "name": "Gustavo Santaolalla",
            "popularity": 63,
            "type": "artist",
            "uri": "spotify:artist:4W3fa7tiXGVXl3KilbACqt"
        },
        {
            "external_urls": {
                "spotify": "https://open.spotify.com/artist/7dGJo4pcD2V6oG8kP0tJRR"
            },
            "followers": {
                "href": null,
                "total": 59749096
            },
            "genres": [
                "detroit hip hop",
                "hip hop",
                "rap"
            ],
            "href": "https://api.spotify.com/v1/artists/7dGJo4pcD2V6oG8kP0tJRR",
            "id": "7dGJo4pcD2V6oG8kP0tJRR",
            "images": [
                {
                    "height": 640,
                    "url": "https://i.scdn.co/image/ab6761610000e5eba00b11c129b27a88fc72f36b",
                    "width": 640
                },
                {
                    "height": 320,
                    "url": "https://i.scdn.co/image/ab67616100005174a00b11c129b27a88fc72f36b",
                    "width": 320
                },
                {
                    "height": 160,
                    "url": "https://i.scdn.co/image/ab6761610000f178a00b11c129b27a88fc72f36b",
                    "width": 160
                }
            ],
            "name": "Eminem",
            "popularity": 90,
            "type": "artist",
            "uri": "spotify:artist:7dGJo4pcD2V6oG8kP0tJRR"
        },
        {
            "external_urls": {
                "spotify": "https://open.spotify.com/artist/69GGBxA162lTqCwzJG5jLp"
            },
            "followers": {
                "href": null,
                "total": 19495416
            },
            "genres": [
                "dance pop",
                "edm",
                "electropop",
                "pop",
                "pop dance",
                "tropical house"
            ],
            "href": "https://api.spotify.com/v1/artists/69GGBxA162lTqCwzJG5jLp",
            "id": "69GGBxA162lTqCwzJG5jLp",
            "images": [
                {
                    "height": 640,
                    "url": "https://i.scdn.co/image/ab6761610000e5eb3c02f4fb4cc9187c488afd50",
                    "width": 640
                },
                {
                    "height": 320,
                    "url": "https://i.scdn.co/image/ab676161000051743c02f4fb4cc9187c488afd50",
                    "width": 320
                },
                {
                    "height": 160,
                    "url": "https://i.scdn.co/image/ab6761610000f1783c02f4fb4cc9187c488afd50",
                    "width": 160
                }
            ],
            "name": "The Chainsmokers",
            "popularity": 80,
            "type": "artist",
            "uri": "spotify:artist:69GGBxA162lTqCwzJG5jLp"
        },
        {
            "external_urls": {
                "spotify": "https://open.spotify.com/artist/53XhwfbYqKCa1cC15pYq2q"
            },
            "followers": {
                "href": null,
                "total": 42162667
            },
            "genres": [
                "modern rock",
                "rock"
            ],
            "href": "https://api.spotify.com/v1/artists/53XhwfbYqKCa1cC15pYq2q",
            "id": "53XhwfbYqKCa1cC15pYq2q",
            "images": [
                {
                    "height": 640,
                    "url": "https://i.scdn.co/image/ab6761610000e5eb920dc1f617550de8388f368e",
                    "width": 640
                },
                {
                    "height": 320,
                    "url": "https://i.scdn.co/image/ab67616100005174920dc1f617550de8388f368e",
                    "width": 320
                },
                {
                    "height": 160,
                    "url": "https://i.scdn.co/image/ab6761610000f178920dc1f617550de8388f368e",
                    "width": 160
                }
            ],
            "name": "Imagine Dragons",
            "popularity": 88,
            "type": "artist",
            "uri": "spotify:artist:53XhwfbYqKCa1cC15pYq2q"
        },
        {
            "external_urls": {
                "spotify": "https://open.spotify.com/artist/06HL4z0CvFAxyc27GXpf02"
            },
            "followers": {
                "href": null,
                "total": 59291644
            },
            "genres": [
                "pop"
            ],
            "href": "https://api.spotify.com/v1/artists/06HL4z0CvFAxyc27GXpf02",
            "id": "06HL4z0CvFAxyc27GXpf02",
            "images": [
                {
                    "height": 640,
                    "url": "https://i.scdn.co/image/ab6761610000e5ebfcf7c334a6e9dcb8555f3663",
                    "width": 640
                },
                {
                    "height": 320,
                    "url": "https://i.scdn.co/image/ab67616100005174fcf7c334a6e9dcb8555f3663",
                    "width": 320
                },
                {
                    "height": 160,
                    "url": "https://i.scdn.co/image/ab6761610000f178fcf7c334a6e9dcb8555f3663",
                    "width": 160
                }
            ],
            "name": "Taylor Swift",
            "popularity": 94,
            "type": "artist",
            "uri": "spotify:artist:06HL4z0CvFAxyc27GXpf02"
        },
        {
            "external_urls": {
                "spotify": "https://open.spotify.com/artist/4gzpq5DPGxSnKTe4SA8HAU"
            },
            "followers": {
                "href": null,
                "total": 38731636
            },
            "genres": [
                "permanent wave",
                "pop"
            ],
            "href": "https://api.spotify.com/v1/artists/4gzpq5DPGxSnKTe4SA8HAU",
            "id": "4gzpq5DPGxSnKTe4SA8HAU",
            "images": [
                {
                    "height": 640,
                    "url": "https://i.scdn.co/image/ab6761610000e5eb865a3301762a8fce048cb469",
                    "width": 640
                },
                {
                    "height": 320,
                    "url": "https://i.scdn.co/image/ab67616100005174865a3301762a8fce048cb469",
                    "width": 320
                },
                {
                    "height": 160,
                    "url": "https://i.scdn.co/image/ab6761610000f178865a3301762a8fce048cb469",
                    "width": 160
                }
            ],
            "name": "Coldplay",
            "popularity": 89,
            "type": "artist",
            "uri": "spotify:artist:4gzpq5DPGxSnKTe4SA8HAU"
        },
        {
            "external_urls": {
                "spotify": "https://open.spotify.com/artist/7vk5e3vY1uw9plTHJAMwjN"
            },
            "followers": {
                "href": null,
                "total": 35305189
            },
            "genres": [
                "electro house"
            ],
            "href": "https://api.spotify.com/v1/artists/7vk5e3vY1uw9plTHJAMwjN",
            "id": "7vk5e3vY1uw9plTHJAMwjN",
            "images": [
                {
                    "height": 640,
                    "url": "https://i.scdn.co/image/ab6761610000e5eb29da45fd16f4b249be105618",
                    "width": 640
                },
                {
                    "height": 320,
                    "url": "https://i.scdn.co/image/ab6761610000517429da45fd16f4b249be105618",
                    "width": 320
                },
                {
                    "height": 160,
                    "url": "https://i.scdn.co/image/ab6761610000f17829da45fd16f4b249be105618",
                    "width": 160
                }
            ],
            "name": "Alan Walker",
            "popularity": 80,
            "type": "artist",
            "uri": "spotify:artist:7vk5e3vY1uw9plTHJAMwjN"
        },
        {
            "external_urls": {
                "spotify": "https://open.spotify.com/artist/6s22t5Y3prQHyaHWUN1R1C"
            },
            "followers": {
                "href": null,
                "total": 2529259
            },
            "genres": [
                "modern rock"
            ],
            "href": "https://api.spotify.com/v1/artists/6s22t5Y3prQHyaHWUN1R1C",
            "id": "6s22t5Y3prQHyaHWUN1R1C",
            "images": [
                {
                    "height": 640,
                    "url": "https://i.scdn.co/image/ab6761610000e5ebd0f8fb5691ea660889d10eb1",
                    "width": 640
                },
                {
                    "height": 320,
                    "url": "https://i.scdn.co/image/ab67616100005174d0f8fb5691ea660889d10eb1",
                    "width": 320
                },
                {
                    "height": 160,
                    "url": "https://i.scdn.co/image/ab6761610000f178d0f8fb5691ea660889d10eb1",
                    "width": 160
                }
            ],
            "name": "AJR",
            "popularity": 76,
            "type": "artist",
            "uri": "spotify:artist:6s22t5Y3prQHyaHWUN1R1C"
        },
        {
            "external_urls": {
                "spotify": "https://open.spotify.com/artist/60d24wfXkVzDSfLS6hyCjZ"
            },
            "followers": {
                "href": null,
                "total": 15621571
            },
            "genres": [
                "dance pop",
                "dutch edm",
                "edm",
                "pop",
                "pop dance",
                "progressive house",
                "tropical house"
            ],
            "href": "https://api.spotify.com/v1/artists/60d24wfXkVzDSfLS6hyCjZ",
            "id": "60d24wfXkVzDSfLS6hyCjZ",
            "images": [
                {
                    "height": 640,
                    "url": "https://i.scdn.co/image/ab6761610000e5eb66d17ee8690d2e8d94ee7387",
                    "width": 640
                },
                {
                    "height": 320,
                    "url": "https://i.scdn.co/image/ab6761610000517466d17ee8690d2e8d94ee7387",
                    "width": 320
                },
                {
                    "height": 160,
                    "url": "https://i.scdn.co/image/ab6761610000f17866d17ee8690d2e8d94ee7387",
                    "width": 160
                }
            ],
            "name": "Martin Garrix",
            "popularity": 76,
            "type": "artist",
            "uri": "spotify:artist:60d24wfXkVzDSfLS6hyCjZ"
        },
        {
            "external_urls": {
                "spotify": "https://open.spotify.com/artist/6TV0LZ3BaEun0OQEh96elP"
            },
            "followers": {
                "href": null,
                "total": 86057
            },
            "genres": [
                "australian talent show",
                "idol"
            ],
            "href": "https://api.spotify.com/v1/artists/6TV0LZ3BaEun0OQEh96elP",
            "id": "6TV0LZ3BaEun0OQEh96elP",
            "images": [
                {
                    "height": 640,
                    "url": "https://i.scdn.co/image/ab6761610000e5ebf9c84dc7062dade249e58e02",
                    "width": 640
                },
                {
                    "height": 320,
                    "url": "https://i.scdn.co/image/ab67616100005174f9c84dc7062dade249e58e02",
                    "width": 320
                },
                {
                    "height": 160,
                    "url": "https://i.scdn.co/image/ab6761610000f178f9c84dc7062dade249e58e02",
                    "width": 160
                }
            ],
            "name": "Jordan Smith",
            "popularity": 45,
            "type": "artist",
            "uri": "spotify:artist:6TV0LZ3BaEun0OQEh96elP"
        },
        {
            "external_urls": {
                "spotify": "https://open.spotify.com/artist/7f5Zgnp2spUuuzKplmRkt7"
            },
            "followers": {
                "href": null,
                "total": 2486190
            },
            "genres": [
                "belgian edm",
                "edm",
                "pop",
                "pop dance",
                "tropical house"
            ],
            "href": "https://api.spotify.com/v1/artists/7f5Zgnp2spUuuzKplmRkt7",
            "id": "7f5Zgnp2spUuuzKplmRkt7",
            "images": [
                {
                    "height": 640,
                    "url": "https://i.scdn.co/image/ab6761610000e5ebee4036f9f7dc31f00c28e361",
                    "width": 640
                },
                {
                    "height": 320,
                    "url": "https://i.scdn.co/image/ab67616100005174ee4036f9f7dc31f00c28e361",
                    "width": 320
                },
                {
                    "height": 160,
                    "url": "https://i.scdn.co/image/ab6761610000f178ee4036f9f7dc31f00c28e361",
                    "width": 160
                }
            ],
            "name": "Lost Frequencies",
            "popularity": 76,
            "type": "artist",
            "uri": "spotify:artist:7f5Zgnp2spUuuzKplmRkt7"
        },
        {
            "external_urls": {
                "spotify": "https://open.spotify.com/artist/0DxPHf2flBAcV2SnZPg3SV"
            },
            "followers": {
                "href": null,
                "total": 154385
            },
            "genres": [
                "indiecoustica",
                "neo mellow",
                "pop",
                "pop rock",
                "post-teen pop",
                "uk pop"
            ],
            "href": "https://api.spotify.com/v1/artists/0DxPHf2flBAcV2SnZPg3SV",
            "id": "0DxPHf2flBAcV2SnZPg3SV",
            "images": [
                {
                    "height": 640,
                    "url": "https://i.scdn.co/image/ab6761610000e5eb4dc598121de67c092958da32",
                    "width": 640
                },
                {
                    "height": 320,
                    "url": "https://i.scdn.co/image/ab676161000051744dc598121de67c092958da32",
                    "width": 320
                },
                {
                    "height": 160,
                    "url": "https://i.scdn.co/image/ab6761610000f1784dc598121de67c092958da32",
                    "width": 160
                }
            ],
            "name": "Jake Scott",
            "popularity": 65,
            "type": "artist",
            "uri": "spotify:artist:0DxPHf2flBAcV2SnZPg3SV"
        },
        {
            "external_urls": {
                "spotify": "https://open.spotify.com/artist/04gDigrS5kc9YWfZHwBETP"
            },
            "followers": {
                "href": null,
                "total": 37999814
            },
            "genres": [
                "pop"
            ],
            "href": "https://api.spotify.com/v1/artists/04gDigrS5kc9YWfZHwBETP",
            "id": "04gDigrS5kc9YWfZHwBETP",
            "images": [
                {
                    "height": 640,
                    "url": "https://i.scdn.co/image/ab6761610000e5eb288ac05481cedc5bddb5b11b",
                    "width": 640
                },
                {
                    "height": 320,
                    "url": "https://i.scdn.co/image/ab67616100005174288ac05481cedc5bddb5b11b",
                    "width": 320
                },
                {
                    "height": 160,
                    "url": "https://i.scdn.co/image/ab6761610000f178288ac05481cedc5bddb5b11b",
                    "width": 160
                }
            ],
            "name": "Maroon 5",
            "popularity": 85,
            "type": "artist",
            "uri": "spotify:artist:04gDigrS5kc9YWfZHwBETP"
        }
    ],
    "total": 50,
    "limit": 20,
    "offset": 0,
    "href": "https://api.spotify.com/v1/me/top/artists",
    "previous": null,
    "next": "https://api.spotify.com/v1/me/top/artists?limit=20&offset=20"
}